[{"airline_name":"Waterlily","flight_no":"dHm-21","price":"961.09"},
{"airline_name":"Conglomerate Jelly Lichen","flight_no":"dnf-84","price":"1104.62"},
{"airline_name":"Boston Ivy","flight_no":"beP-70","price":"976.78"},
{"airline_name":"Rigid Didymodon Moss","flight_no":"PEy-14","price":"1959.43"},
{"airline_name":"Transcend Cup Lichen","flight_no":"0vR-06","price":"1969.42"},
{"airline_name":"Basalt Larkspur","flight_no":"aeq-53","price":"556.29"},
{"airline_name":"Tobacco","flight_no":"FOB-69","price":"1387.98"},
{"airline_name":"Balkan Pine","flight_no":"oOV-39","price":"1544.27"},
{"airline_name":"Trypelthelium Lichen","flight_no":"poi-85","price":"1219.20"},
{"airline_name":"Placidiopsis Lichen","flight_no":"q75-27","price":"534.18"},
{"airline_name":"Mississippi Buttercup","flight_no":"J3r-18","price":"405.28"},
{"airline_name":"Hawai'i Pricklyash","flight_no":"LB7-01","price":"273.96"},
{"airline_name":"Mustard","flight_no":"sMz-58","price":"1819.29"},
{"airline_name":"Boreal Locoweed","flight_no":"zYN-14","price":"355.21"},
{"airline_name":"Hairy Ironwort","flight_no":"2FQ-94","price":"1919.63"},
{"airline_name":"Abajo Fleabane","flight_no":"q62-73","price":"1047.39"},
{"airline_name":"Menzies' Goldenbush","flight_no":"00o-65","price":"850.71"},
{"airline_name":"Carolina False Vervain","flight_no":"y7d-01","price":"752.90"},
{"airline_name":"Woolly Mock Goldenweed","flight_no":"H9w-01","price":"355.49"},
{"airline_name":"Drushel's Wild Petunia","flight_no":"2lK-27","price":"1493.95"},
{"airline_name":"Southern Twayblade","flight_no":"qSO-25","price":"1512.25"},
{"airline_name":"Franciscan Erigeron","flight_no":"P9N-57","price":"1859.07"},
{"airline_name":"Heller's Draba","flight_no":"cMM-79","price":"1548.71"},
{"airline_name":"Sickle Senna","flight_no":"eF5-62","price":"879.11"},
{"airline_name":"Rim Lichen","flight_no":"zi1-81","price":"1438.21"},
{"airline_name":"Smooth Fanpetals","flight_no":"smA-04","price":"1899.27"},
{"airline_name":"Buckbean","flight_no":"uwq-49","price":"1716.86"},
{"airline_name":"Palmer's Grapplinghook","flight_no":"Gcq-39","price":"1027.48"},
{"airline_name":"Nelson's Buttercup","flight_no":"raU-25","price":"627.46"},
{"airline_name":"Pale Pseudoleskea Moss","flight_no":"r4w-43","price":"495.47"},
{"airline_name":"Seseli","flight_no":"5NY-88","price":"1583.13"},
{"airline_name":"Green And Gold","flight_no":"1pc-38","price":"176.24"},
{"airline_name":"Chinese Golden-larch","flight_no":"FNl-48","price":"477.35"},
{"airline_name":"Nealie","flight_no":"R7G-73","price":"1916.10"},
{"airline_name":"Smallflower Clermontia","flight_no":"DkJ-33","price":"688.31"},
{"airline_name":"Santa Rita Mountain Draba","flight_no":"fEm-11","price":"1665.80"},
{"airline_name":"Slender Tansyaster","flight_no":"LNk-42","price":"1805.06"},
{"airline_name":"Seaside Nehe","flight_no":"12W-09","price":"1628.09"},
{"airline_name":"Ambatch","flight_no":"hGT-80","price":"1126.56"},
{"airline_name":"Tracy's Mistmaiden","flight_no":"msp-35","price":"1988.65"},
{"airline_name":"Rubber Rabbitbrush","flight_no":"uj4-27","price":"110.43"},
{"airline_name":"Rueleaf Saxifrage","flight_no":"Jrw-25","price":"167.40"},
{"airline_name":"Swamp Doghobble","flight_no":"vGH-85","price":"1797.56"},
{"airline_name":"Hornwort","flight_no":"wza-02","price":"1311.81"},
{"airline_name":"Western Sweetvetch","flight_no":"0oO-75","price":"805.17"},
{"airline_name":"Water Disc Lichen","flight_no":"8U9-29","price":"1733.80"},
{"airline_name":"Tall Annual Willowherb","flight_no":"ReN-99","price":"1214.75"},
{"airline_name":"Virginia Strawberry","flight_no":"9a8-50","price":"1574.08"},
{"airline_name":"Zahlbruckner's Earth Lichen","flight_no":"WxW-06","price":"1653.22"},
{"airline_name":"Alaska Wormwood","flight_no":"MRb-62","price":"1746.49"},
{"airline_name":"Red Milkweed","flight_no":"2JL-74","price":"223.51"},
{"airline_name":"Woolly Woodvine","flight_no":"Fp8-06","price":"1787.23"},
{"airline_name":"Softhair Coneflower","flight_no":"GKx-66","price":"122.38"},
{"airline_name":"White Frasera","flight_no":"eze-67","price":"1739.73"},
{"airline_name":"Bridalveil","flight_no":"ml3-44","price":"1506.40"},
{"airline_name":"Desert Lupine","flight_no":"XvZ-76","price":"1059.83"},
{"airline_name":"Punctelia","flight_no":"jxO-38","price":"1087.95"},
{"airline_name":"Echeveria","flight_no":"vDk-08","price":"1696.75"},
{"airline_name":"Slashleaf Slipplejack","flight_no":"aht-52","price":"577.69"},
{"airline_name":"Mexican Sweetcicely","flight_no":"kxu-11","price":"1518.08"},
{"airline_name":"Giant Salvinia","flight_no":"cXL-48","price":"1764.59"},
{"airline_name":"Beechdrops","flight_no":"ZEN-90","price":"827.97"},
{"airline_name":"Pinkscale Blazing Star","flight_no":"oRM-78","price":"1451.80"},
{"airline_name":"Willey's Mycomicrothelia Lichen","flight_no":"SUu-35","price":"889.45"},
{"airline_name":"Nakedstem Carpetweed","flight_no":"Fyc-82","price":"762.56"},
{"airline_name":"Oneflower Fleabane","flight_no":"mDx-52","price":"1542.81"},
{"airline_name":"Crocynia Lichen","flight_no":"R0P-03","price":"1559.53"},
{"airline_name":"Lilacbush","flight_no":"jx2-77","price":"767.73"},
{"airline_name":"Slender Parsley Piert","flight_no":"Dye-74","price":"1998.17"},
{"airline_name":"Trans-pecos Milkvine","flight_no":"NCX-78","price":"1470.37"},
{"airline_name":"Jelly Lichen","flight_no":"9HF-83","price":"1662.19"},
{"airline_name":"Anthracothecium Lichen","flight_no":"7CR-81","price":"1321.77"},
{"airline_name":"Asian Ponysfoot","flight_no":"yRX-54","price":"931.81"},
{"airline_name":"Lavafield False Ohelo","flight_no":"dvF-81","price":"1710.10"},
{"airline_name":"Damasonium","flight_no":"XUq-93","price":"204.42"},
{"airline_name":"Netvein Goldeneye","flight_no":"4dF-39","price":"1494.57"},
{"airline_name":"Blackbract Willow","flight_no":"Y8f-70","price":"1554.45"},
{"airline_name":"Gregg's Tube Tongue","flight_no":"7CS-69","price":"476.03"},
{"airline_name":"Gray's Sedge","flight_no":"Cby-73","price":"577.94"},
{"airline_name":"Bracted Alumroot","flight_no":"gDQ-54","price":"1482.78"},
{"airline_name":"Fox Grape","flight_no":"0AD-71","price":"1745.30"},
{"airline_name":"Bouquet False Buttonweed","flight_no":"DLj-57","price":"1379.12"},
{"airline_name":"Mottled Tuberose","flight_no":"Spi-47","price":"1064.44"},
{"airline_name":"Arabian Schismus","flight_no":"IhN-29","price":"192.51"},
{"airline_name":"Rhachithecium Moss","flight_no":"Fn3-22","price":"363.23"},
{"airline_name":"Eureka Milkvetch","flight_no":"Xvw-96","price":"1479.02"},
{"airline_name":"Coastal Woodfern","flight_no":"kqG-53","price":"841.71"},
{"airline_name":"Cathedral Bluff Meadow-rue","flight_no":"0RI-33","price":"514.39"},
{"airline_name":"Front Range Milkvetch","flight_no":"GkG-18","price":"980.75"},
{"airline_name":"Puahekili","flight_no":"y5m-04","price":"1978.48"},
{"airline_name":"Map Lichen","flight_no":"Dqc-14","price":"1283.42"},
{"airline_name":"Star Reindeer Lichen","flight_no":"sce-51","price":"645.40"},
{"airline_name":"Serpentine Pseudoleskeella Moss","flight_no":"r8D-13","price":"1146.58"},
{"airline_name":"Reznicek's Sedge","flight_no":"B0J-76","price":"729.07"},
{"airline_name":"Canada Lily","flight_no":"ztq-60","price":"298.23"},
{"airline_name":"Arctoa Moss","flight_no":"qoB-05","price":"986.56"},
{"airline_name":"Frost Grass","flight_no":"Woh-75","price":"598.18"},
{"airline_name":"Greater Yellow Lady's Slipper","flight_no":"X2Y-07","price":"346.85"},
{"airline_name":"Celotti's Hawthorn","flight_no":"NIE-44","price":"1752.68"},
{"airline_name":"Florida Whitetop","flight_no":"Af8-44","price":"221.73"},
{"airline_name":"American Tarwort","flight_no":"ptv-78","price":"1230.90"},
{"airline_name":"Treelover","flight_no":"KQ6-70","price":"607.15"},
{"airline_name":"Wild Sweetwilliam","flight_no":"wJa-60","price":"1806.97"},
{"airline_name":"Redberry Buckthorn","flight_no":"Fta-29","price":"752.24"},
{"airline_name":"Palmer's Liveforever","flight_no":"KWB-27","price":"652.72"},
{"airline_name":"Tufted Milkvetch","flight_no":"whq-88","price":"509.95"},
{"airline_name":"Silver Pygmycudweed","flight_no":"lOn-75","price":"1879.14"},
{"airline_name":"Yellow Avalanche-lily","flight_no":"8YW-95","price":"1382.95"},
{"airline_name":"Selwyn's Pylaisiella Moss","flight_no":"bik-86","price":"570.44"},
{"airline_name":"Winecup Clarkia","flight_no":"A4z-81","price":"1913.28"},
{"airline_name":"Alpine Lily","flight_no":"Zz3-65","price":"1725.63"},
{"airline_name":"Island Bush Monkeyflower","flight_no":"THR-60","price":"690.38"},
{"airline_name":"American Elm","flight_no":"z8w-88","price":"899.82"},
{"airline_name":"Pineland Dewberry","flight_no":"2fF-46","price":"793.77"},
{"airline_name":"Asiatic Tearthumb","flight_no":"hVo-87","price":"545.20"},
{"airline_name":"Ngai Camphor","flight_no":"7Xw-67","price":"694.16"},
{"airline_name":"Skilpadbessie","flight_no":"8Ey-71","price":"1476.15"},
{"airline_name":"Fendler's Meadow-rue","flight_no":"Wag-42","price":"1197.20"},
{"airline_name":"Garovagl's Rim Lichen","flight_no":"hrL-00","price":"473.58"},
{"airline_name":"Stickystem Pearlwort","flight_no":"YOH-42","price":"1783.76"},
{"airline_name":"American Beakgrain","flight_no":"zro-45","price":"150.34"},
{"airline_name":"Columbian Watermeal","flight_no":"P0E-64","price":"513.20"},
{"airline_name":"Xylographa Lichen","flight_no":"1YF-13","price":"778.11"},
{"airline_name":"Roccellina Lichen","flight_no":"58G-81","price":"1854.93"},
{"airline_name":"Woodfern","flight_no":"h7q-19","price":"670.67"},
{"airline_name":"Lemmon's Rockcress","flight_no":"3V1-14","price":"1589.69"},
{"airline_name":"Barbella Moss","flight_no":"t9Y-89","price":"1803.46"},
{"airline_name":"Featherstem Clubmoss","flight_no":"W98-30","price":"1793.89"},
{"airline_name":"Georgia Rush","flight_no":"5Qu-12","price":"1727.26"},
{"airline_name":"Indian Tobacco","flight_no":"xFP-51","price":"392.00"},
{"airline_name":"Balfour's Touch-me-not","flight_no":"lyu-04","price":"284.69"},
{"airline_name":"Puerto Rico Raintree","flight_no":"Bza-67","price":"1228.40"},
{"airline_name":"Longtube Iris","flight_no":"lxW-98","price":"586.89"},
{"airline_name":"Tulare Saltbush","flight_no":"VLB-01","price":"828.49"},
{"airline_name":"Dot Lichen","flight_no":"pqE-51","price":"1124.30"},
{"airline_name":"Small Treefern","flight_no":"8O4-37","price":"510.48"},
{"airline_name":"Durietz's Orange Lichen","flight_no":"AaY-65","price":"1273.57"},
{"airline_name":"Barbed Rattlesnakeroot","flight_no":"QK5-60","price":"339.31"},
{"airline_name":"False Brome","flight_no":"GAU-67","price":"620.30"},
{"airline_name":"Rosamond Woollystar","flight_no":"cGm-90","price":"1063.08"},
{"airline_name":"California Entosthodon Moss","flight_no":"wlr-14","price":"1830.33"},
{"airline_name":"Wislizenia","flight_no":"uyc-88","price":"1964.18"},
{"airline_name":"Common Juniper","flight_no":"tUi-50","price":"752.18"},
{"airline_name":"Peruvian Groundcherry","flight_no":"I0b-53","price":"299.59"},
{"airline_name":"Amaumau Fern","flight_no":"scr-26","price":"391.32"},
{"airline_name":"Moss Campion","flight_no":"9Zm-18","price":"891.65"},
{"airline_name":"Creole Tea","flight_no":"Cgh-29","price":"1553.31"},
{"airline_name":"Pmc Manzanita","flight_no":"Jqr-31","price":"1365.23"},
{"airline_name":"Sheep Fescue","flight_no":"Iy6-60","price":"199.32"},
{"airline_name":"Tall Elephantsfoot","flight_no":"goi-80","price":"1594.02"},
{"airline_name":"Emory's Milkvetch","flight_no":"Uzf-35","price":"616.00"},
{"airline_name":"Map Lichen","flight_no":"Ogy-13","price":"890.99"},
{"airline_name":"Hazel Dodder","flight_no":"dV4-61","price":"1348.62"},
{"airline_name":"Montane Dry Rock Moss","flight_no":"VOE-87","price":"1511.88"},
{"airline_name":"Bebb's Sedge","flight_no":"FQs-35","price":"1474.84"},
{"airline_name":"Blepharipappus","flight_no":"HEB-67","price":"1045.33"},
{"airline_name":"Hammock Sedge","flight_no":"8Q1-40","price":"989.87"},
{"airline_name":"Daimyo Oak","flight_no":"Aq5-97","price":"1842.24"},
{"airline_name":"Buckeye","flight_no":"JYc-93","price":"1039.30"},
{"airline_name":"Scepterbearing Fleabane","flight_no":"8dL-44","price":"1372.03"},
{"airline_name":"Fryxellwort","flight_no":"e3b-62","price":"347.65"},
{"airline_name":"Oklahoma Phlox","flight_no":"Oxv-46","price":"1952.99"},
{"airline_name":"Roell's Brotherella Moss","flight_no":"72j-54","price":"1915.77"},
{"airline_name":"Elliott's Gentian","flight_no":"Y75-89","price":"1551.28"},
{"airline_name":"Crusty Navel Lichen","flight_no":"dPj-23","price":"831.01"},
{"airline_name":"Micrandra","flight_no":"Uf8-91","price":"1633.85"},
{"airline_name":"Hupeh Cotoneaster","flight_no":"QV7-04","price":"913.89"},
{"airline_name":"Poponax","flight_no":"PKI-88","price":"487.30"},
{"airline_name":"Abey Amarillo","flight_no":"fbn-70","price":"368.85"},
{"airline_name":"Ballmustard","flight_no":"lhu-42","price":"985.68"},
{"airline_name":"Turgid Aulacomnium Moss","flight_no":"pTQ-61","price":"769.32"},
{"airline_name":"Rinodina Lichen","flight_no":"Nc0-54","price":"1738.82"},
{"airline_name":"Rainbow Iris","flight_no":"U0I-57","price":"190.46"},
{"airline_name":"Murray's Birch","flight_no":"uVV-06","price":"1308.57"},
{"airline_name":"Brazilian Firetree","flight_no":"Q4C-90","price":"908.47"},
{"airline_name":"Brazilian Joyweed","flight_no":"u8Z-52","price":"1736.70"},
{"airline_name":"California Pterygoneurum Moss","flight_no":"zTk-17","price":"1764.31"},
{"airline_name":"Marsh Milkvetch","flight_no":"ZkC-13","price":"343.81"},
{"airline_name":"Thompson's Dalea","flight_no":"lon-80","price":"1338.87"},
{"airline_name":"Mesquite Mistletoe","flight_no":"aAZ-81","price":"526.71"},
{"airline_name":"Branched Draba","flight_no":"mRB-84","price":"1749.58"},
{"airline_name":"Treetrunk Cyanea","flight_no":"VQD-51","price":"900.39"},
{"airline_name":"Papilla Polytrichum Moss","flight_no":"eBx-27","price":"1761.00"},
{"airline_name":"Whitetop Aster","flight_no":"Y1K-73","price":"744.29"},
{"airline_name":"Algerian Ivy","flight_no":"bQX-76","price":"958.27"},
{"airline_name":"Euryops","flight_no":"q8S-92","price":"206.52"},
{"airline_name":"Palolo Valley Cyrtandra","flight_no":"liT-51","price":"1791.56"},
{"airline_name":"Scholander's Navel Lichen","flight_no":"7nX-66","price":"178.37"},
{"airline_name":"Pink Azalea","flight_no":"zgb-45","price":"860.48"},
{"airline_name":"Lesica's Draba","flight_no":"Kq4-19","price":"421.28"},
{"airline_name":"Seaberry","flight_no":"K4V-21","price":"1769.71"},
{"airline_name":"Stiff Parmotrema Lichen","flight_no":"61M-72","price":"401.89"},
{"airline_name":"Goldentop Grass","flight_no":"ASo-55","price":"365.51"},
{"airline_name":"Spleenwort","flight_no":"rLO-41","price":"814.10"},
{"airline_name":"Pacific Jewelflower","flight_no":"EBj-71","price":"1746.97"},
{"airline_name":"Downy Prairie Clover","flight_no":"lKk-78","price":"1040.43"},
{"airline_name":"Schinopsis","flight_no":"gAV-81","price":"362.52"},
{"airline_name":"Arizona Bristlegrass","flight_no":"Bu7-66","price":"816.91"},
{"airline_name":"Mexican Brassbuttons","flight_no":"nqz-91","price":"1033.48"},
{"airline_name":"Shy Gilia","flight_no":"c62-53","price":"1060.94"},
{"airline_name":"Spalding's Milkvetch","flight_no":"ZZM-38","price":"1820.67"},
{"airline_name":"Wahiawa Cyanea","flight_no":"LdP-89","price":"1257.96"},
{"airline_name":"Moth Pepper","flight_no":"zuJ-58","price":"1545.36"},
{"airline_name":"Lindsaeosoria","flight_no":"ULU-96","price":"668.48"},
{"airline_name":"Aguacatillo","flight_no":"L5M-74","price":"517.80"},
{"airline_name":"Champin's Grape","flight_no":"BIC-06","price":"473.03"},
{"airline_name":"Crispleaf Buckwheat","flight_no":"K2y-17","price":"503.24"},
{"airline_name":"Beard Lichen","flight_no":"L2k-80","price":"1262.67"},
{"airline_name":"White Sapote","flight_no":"Zm9-01","price":"1506.38"},
{"airline_name":"Great Smoky Mountain Sedge","flight_no":"SSI-20","price":"224.03"},
{"airline_name":"Checkerbloom","flight_no":"rYn-71","price":"1944.23"},
{"airline_name":"Andrews' Blackberry","flight_no":"awy-81","price":"1080.19"},
{"airline_name":"Nodding Needlegrass","flight_no":"DE4-83","price":"1674.04"},
{"airline_name":"Lean Flatsedge","flight_no":"TEp-33","price":"838.57"},
{"airline_name":"Sleepingbeauty Waterlily","flight_no":"Jzt-27","price":"684.12"},
{"airline_name":"Santa Lucia Suncup","flight_no":"nwY-69","price":"1875.94"},
{"airline_name":"Turtleback","flight_no":"RfC-71","price":"205.70"},
{"airline_name":"Torhleaf Goldeneye","flight_no":"EoL-78","price":"141.02"},
{"airline_name":"Wild Canterbury Bells","flight_no":"443-41","price":"786.67"},
{"airline_name":"Pendent Silver Linden","flight_no":"FyD-26","price":"397.62"},
{"airline_name":"Water Figwort","flight_no":"L3v-68","price":"254.72"},
{"airline_name":"Arctic Spotted Felt Lichen","flight_no":"ydL-13","price":"1626.43"},
{"airline_name":"Tall Coastal Plantain","flight_no":"Lou-91","price":"1291.31"},
{"airline_name":"Phaeographis","flight_no":"vxM-41","price":"1581.03"},
{"airline_name":"Palamocladium Moss","flight_no":"Zw4-60","price":"1573.51"},
{"airline_name":"Black Rock Townsend Daisy","flight_no":"6vw-98","price":"498.85"},
{"airline_name":"Annual Canarygrass","flight_no":"by2-77","price":"1474.03"},
{"airline_name":"Sonoma Lessingia","flight_no":"Fny-52","price":"1298.23"},
{"airline_name":"Tatarian Aster","flight_no":"6l2-20","price":"280.52"},
{"airline_name":"Occult Jelly Lichen","flight_no":"Z9p-30","price":"1568.90"},
{"airline_name":"Pasture Knapweed","flight_no":"dTZ-00","price":"609.09"},
{"airline_name":"Virginia Water Horehound","flight_no":"ljK-15","price":"468.68"},
{"airline_name":"Scouler's Popcornflower","flight_no":"STt-86","price":"1689.12"},
{"airline_name":"Myagrum","flight_no":"fU3-77","price":"1527.55"},
{"airline_name":"Callicostella Moss","flight_no":"tNu-56","price":"996.13"},
{"airline_name":"Idaho Kittentails","flight_no":"0qe-38","price":"500.47"},
{"airline_name":"Lesser Saltscale","flight_no":"Yii-41","price":"629.04"},
{"airline_name":"Dirinaria Lichen","flight_no":"Hct-86","price":"1090.18"},
{"airline_name":"Resurrection Fern","flight_no":"Mta-26","price":"438.35"},
{"airline_name":"Gentian","flight_no":"GlZ-73","price":"744.82"},
{"airline_name":"Willowy Monardella","flight_no":"tiv-93","price":"1179.80"},
{"airline_name":"Nineleaf Biscuitroot","flight_no":"Bc8-28","price":"1675.06"},
{"airline_name":"Palmer's Penstemon","flight_no":"cK2-23","price":"1240.78"},
{"airline_name":"Nash's Blue-eyed Grass","flight_no":"pe6-89","price":"251.04"},
{"airline_name":"Egger's Morning-glory","flight_no":"TGj-08","price":"1919.11"},
{"airline_name":"Alpine Collomia","flight_no":"eqy-91","price":"1045.32"},
{"airline_name":"Lemhi Halimolobos","flight_no":"q0x-67","price":"1095.98"},
{"airline_name":"False Lobelia","flight_no":"f10-87","price":"1285.41"},
{"airline_name":"Dactylospora Lichen","flight_no":"78z-90","price":"1426.59"},
{"airline_name":"Climbing Arrowheads","flight_no":"hSw-80","price":"386.88"},
{"airline_name":"Elephant-ear","flight_no":"ZV4-78","price":"110.94"},
{"airline_name":"Lilac","flight_no":"ulm-43","price":"1897.79"},
{"airline_name":"Silver Bluestem","flight_no":"yS2-77","price":"1301.94"},
{"airline_name":"Glowwort","flight_no":"Cc5-26","price":"751.60"},
{"airline_name":"Streambank Mock Orange","flight_no":"6UR-39","price":"555.88"},
{"airline_name":"Powdery Milkvetch","flight_no":"5o9-93","price":"657.88"},
{"airline_name":"Lepidopilum Moss","flight_no":"Fti-66","price":"1394.95"},
{"airline_name":"Plumegrass","flight_no":"8ul-29","price":"1679.47"},
{"airline_name":"Spiked Ipomopsis","flight_no":"BIe-71","price":"551.77"},
{"airline_name":"Hairy False Goldenaster","flight_no":"aD4-30","price":"956.54"},
{"airline_name":"Sawsedge","flight_no":"9W4-20","price":"1175.24"},
{"airline_name":"Almquist's Cartilage Lichen","flight_no":"dBm-96","price":"298.26"},
{"airline_name":"Bigelow's False Willow","flight_no":"rrn-52","price":"1578.41"},
{"airline_name":"Goldenheather","flight_no":"TGm-81","price":"1871.32"},
{"airline_name":"Hairy Purslane Speedwell","flight_no":"Lo1-09","price":"768.45"},
{"airline_name":"Sonoma Penstemon","flight_no":"qns-41","price":"1483.69"},
{"airline_name":"Slimjim Bean","flight_no":"dnj-51","price":"1251.80"},
{"airline_name":"Stream-bed Cyanea","flight_no":"JO7-65","price":"977.23"},
{"airline_name":"Orchis","flight_no":"Xkb-46","price":"1209.48"},
{"airline_name":"Pale Touch-me-not","flight_no":"C54-45","price":"259.25"},
{"airline_name":"Lemmon's Milkweed","flight_no":"d6D-55","price":"863.21"},
{"airline_name":"Cleveland's Spineflower","flight_no":"aDR-73","price":"1694.52"},
{"airline_name":"Cup Lichen","flight_no":"yvw-99","price":"580.34"},
{"airline_name":"Sharplobe Hepatica","flight_no":"7fh-53","price":"1736.77"},
{"airline_name":"Fourwing Saltbush","flight_no":"Zjj-43","price":"637.91"},
{"airline_name":"Michaux's Croton","flight_no":"9fK-87","price":"132.05"},
{"airline_name":"Forked Nailwort","flight_no":"qBv-58","price":"1675.06"},
{"airline_name":"Indian Woodoats","flight_no":"zNO-47","price":"1342.13"},
{"airline_name":"Torrey's Blue Eyed Mary","flight_no":"YFq-52","price":"1934.30"},
{"airline_name":"Thompson's Desertparsley","flight_no":"Ee9-86","price":"526.44"},
{"airline_name":"Southwestern Phacelia","flight_no":"vUw-74","price":"789.84"},
{"airline_name":"Different-nerve Sedge","flight_no":"FeX-37","price":"613.30"},
{"airline_name":"Fourwing Saltbush","flight_no":"oEb-11","price":"853.82"},
{"airline_name":"Pinkshell Azalea","flight_no":"4lx-58","price":"1288.13"},
{"airline_name":"Lepuropetalon","flight_no":"fIw-66","price":"1022.69"},
{"airline_name":"Dotted Lichen","flight_no":"TzL-94","price":"518.45"},
{"airline_name":"Oldplainsman","flight_no":"ge3-78","price":"757.94"},
{"airline_name":"Eastern Prickly Gooseberry","flight_no":"XvA-34","price":"1641.37"},
{"airline_name":"Jewels Of Opar","flight_no":"qmF-09","price":"1404.11"},
{"airline_name":"Sesbania","flight_no":"ruI-66","price":"842.45"},
{"airline_name":"Hybrid Oak","flight_no":"eLG-53","price":"1387.53"},
{"airline_name":"American Everlasting","flight_no":"vRO-04","price":"1045.45"},
{"airline_name":"Castilla","flight_no":"eVh-41","price":"1312.05"},
{"airline_name":"Chinese Violet","flight_no":"zHL-88","price":"624.80"},
{"airline_name":"Leather Spineflower","flight_no":"W5Z-87","price":"409.56"},
{"airline_name":"Currant Milkvetch","flight_no":"5rx-04","price":"116.18"},
{"airline_name":"Flatstem Pondweed","flight_no":"biS-39","price":"145.19"},
{"airline_name":"Flowering Almond","flight_no":"Yn7-73","price":"1515.23"},
{"airline_name":"Myelochroa Lichen","flight_no":"AcS-91","price":"229.29"},
{"airline_name":"Saline Valley Phacelia","flight_no":"pZh-76","price":"776.17"},
{"airline_name":"Siskiyou Monardella","flight_no":"8EK-53","price":"175.25"},
{"airline_name":"Bigtop Lovegrass","flight_no":"x16-60","price":"1799.58"},
{"airline_name":"Oregon Bedstraw","flight_no":"HOZ-17","price":"1003.16"},
{"airline_name":"Forest Bedgrass","flight_no":"Hsm-85","price":"1371.86"},
{"airline_name":"Fremont's Chaffbush","flight_no":"5sN-28","price":"495.03"},
{"airline_name":"Least Halberd Fern","flight_no":"Mwm-39","price":"111.06"},
{"airline_name":"Pearl Laceleaf","flight_no":"RkZ-58","price":"1569.89"},
{"airline_name":"Rattan's Sandmat","flight_no":"1cm-68","price":"1728.08"},
{"airline_name":"Rusty Woodsia","flight_no":"rbv-11","price":"1632.61"},
{"airline_name":"Fringed Lichen","flight_no":"mHu-72","price":"1764.46"},
{"airline_name":"Dicranella Moss","flight_no":"Llf-87","price":"1281.89"},
{"airline_name":"Bent Sedge","flight_no":"6qN-43","price":"1155.63"},
{"airline_name":"Field Fescue","flight_no":"0oc-42","price":"1428.44"},
{"airline_name":"Urban's Lovegrass","flight_no":"dfd-23","price":"158.53"},
{"airline_name":"Delta Arrowhead","flight_no":"dFs-77","price":"1181.34"},
{"airline_name":"Haleakala Lobelia","flight_no":"eAG-46","price":"668.86"},
{"airline_name":"Disc Lichen","flight_no":"LnN-35","price":"1150.06"},
{"airline_name":"Schaefferia","flight_no":"t5G-83","price":"318.09"},
{"airline_name":"Elliott's Beaksedge","flight_no":"46E-91","price":"1336.58"},
{"airline_name":"Transverse Range Phacelia","flight_no":"ArF-54","price":"497.62"},
{"airline_name":"St. Lawrence Waterhorehound","flight_no":"Ywq-71","price":"1177.07"},
{"airline_name":"Short Bluegrass","flight_no":"xQQ-48","price":"732.95"},
{"airline_name":"Whitehead Navarretia","flight_no":"6gj-18","price":"231.37"},
{"airline_name":"Pygmy Bluehearts","flight_no":"10I-57","price":"1322.38"},
{"airline_name":"Ohio Orthotrichum Moss","flight_no":"p1o-79","price":"1614.72"},
{"airline_name":"Osmunda","flight_no":"rUW-18","price":"1148.17"},
{"airline_name":"Running Oak","flight_no":"xPm-30","price":"917.59"},
{"airline_name":"Hybrid Crack Willow","flight_no":"6Pb-38","price":"154.98"},
{"airline_name":"Cutleaf Evening Primrose","flight_no":"ULu-69","price":"1784.57"},
{"airline_name":"Far-eastern Smartweed","flight_no":"hLz-04","price":"852.36"},
{"airline_name":"Eureka Springs Hawthorn","flight_no":"ziD-06","price":"1690.80"},
{"airline_name":"False Threadleaf","flight_no":"jsE-35","price":"916.54"},
{"airline_name":"Idaho Pennycress","flight_no":"wGl-80","price":"1793.65"},
{"airline_name":"White Spanishbroom","flight_no":"5fv-15","price":"196.54"},
{"airline_name":"Lecidella Lichen","flight_no":"xdq-95","price":"1594.01"},
{"airline_name":"California Privet","flight_no":"18E-48","price":"1400.22"},
{"airline_name":"Square Goose Neck Moss","flight_no":"uq8-91","price":"342.61"},
{"airline_name":"Green Slender Lupine","flight_no":"b6S-71","price":"328.21"},
{"airline_name":"Porter's Sandmat","flight_no":"icn-28","price":"266.93"},
{"airline_name":"Goldencarpet Buckwheat","flight_no":"r3t-61","price":"783.16"},
{"airline_name":"Pseudoscleropodium Moss","flight_no":"UII-65","price":"252.54"},
{"airline_name":"Mammoth Wildrye","flight_no":"c4Y-83","price":"926.21"},
{"airline_name":"Thurber's Diphysa","flight_no":"AL1-48","price":"121.85"},
{"airline_name":"Witchweed","flight_no":"3yF-08","price":"216.84"},
{"airline_name":"Russian Bugseed","flight_no":"lnC-60","price":"973.74"},
{"airline_name":"Placidiopsis Lichen","flight_no":"Xf5-17","price":"957.30"},
{"airline_name":"Buckley's St. Johnswort","flight_no":"qbL-28","price":"1619.99"},
{"airline_name":"Limber Honeysuckle","flight_no":"vFB-37","price":"1911.32"},
{"airline_name":"Compact Dodder","flight_no":"pzz-11","price":"948.42"},
{"airline_name":"Smallflower Desert-chicory","flight_no":"thX-53","price":"1949.65"},
{"airline_name":"Slender Muhly","flight_no":"0IW-87","price":"1535.26"},
{"airline_name":"Sweet Shaggytuft","flight_no":"5Nk-20","price":"424.86"},
{"airline_name":"Melaspilea Lichen","flight_no":"MEi-03","price":"169.51"},
{"airline_name":"Leoncita False Foxglove","flight_no":"H9S-73","price":"945.28"},
{"airline_name":"King's Beardtongue","flight_no":"qLj-26","price":"1543.69"},
{"airline_name":"Hybrid Violet","flight_no":"TxA-24","price":"560.89"},
{"airline_name":"West Indian Clearweed","flight_no":"W0Z-39","price":"829.19"},
{"airline_name":"Sweet Four O'clock","flight_no":"iRl-92","price":"1739.95"},
{"airline_name":"San Francisco Spineflower","flight_no":"S6M-01","price":"1941.95"},
{"airline_name":"Silky Cinquefoil","flight_no":"KrS-78","price":"1201.55"},
{"airline_name":"Southern Sierra Phacelia","flight_no":"dRU-04","price":"1643.92"},
{"airline_name":"Pacific Woodfern","flight_no":"7A3-43","price":"557.60"},
{"airline_name":"Noble Fir","flight_no":"JeD-64","price":"892.67"},
{"airline_name":"Eastern Bottlebrush Grass","flight_no":"wd6-94","price":"1350.44"},
{"airline_name":"Pineapple Cactus","flight_no":"JgI-77","price":"656.17"},
{"airline_name":"Caribbean Filmy Fern","flight_no":"ORk-17","price":"1550.15"},
{"airline_name":"Crowfoot Rockdaisy","flight_no":"Tlp-64","price":"1197.48"},
{"airline_name":"Cliffbrake","flight_no":"UXH-86","price":"1142.26"},
{"airline_name":"Silver Saltbush","flight_no":"Syt-17","price":"1557.61"},
{"airline_name":"Slenderleaf False Foxglove","flight_no":"lTt-68","price":"210.90"},
{"airline_name":"Drummond's Cinquefoil","flight_no":"ryA-59","price":"1223.76"},
{"airline_name":"Antilles Hollyfern","flight_no":"YsY-65","price":"952.09"},
{"airline_name":"Molokai False Lobelia","flight_no":"agU-82","price":"141.99"},
{"airline_name":"Campylopodiella Moss","flight_no":"Ky4-61","price":"484.72"},
{"airline_name":"Desert Rosemallow","flight_no":"qp0-07","price":"121.94"},
{"airline_name":"Mexican Sprangletop","flight_no":"G2J-73","price":"1385.22"},
{"airline_name":"Bryum Moss","flight_no":"y7C-25","price":"1000.10"},
{"airline_name":"California Bentgrass","flight_no":"0YY-92","price":"1218.34"},
{"airline_name":"Goldencarpet","flight_no":"wuL-99","price":"615.31"},
{"airline_name":"Wild Bergamot","flight_no":"SEd-53","price":"1380.27"},
{"airline_name":"Bird Beaksedge","flight_no":"F1U-45","price":"1008.60"},
{"airline_name":"Dot Lichen","flight_no":"GL1-25","price":"1167.32"},
{"airline_name":"Setterwort","flight_no":"inL-71","price":"838.40"},
{"airline_name":"Pine Rose","flight_no":"YnY-03","price":"1541.26"},
{"airline_name":"Pearly Everlasting","flight_no":"uVG-37","price":"694.41"},
{"airline_name":"Singleleaf Ash","flight_no":"S0h-31","price":"1923.28"},
{"airline_name":"Pacific Island Clearweed","flight_no":"TMr-81","price":"1756.85"},
{"airline_name":"Palmer's Catchfly","flight_no":"2bI-70","price":"935.64"},
{"airline_name":"Texas Pipewort","flight_no":"3HJ-39","price":"1650.55"},
{"airline_name":"Hygrohypnum Moss","flight_no":"GGZ-47","price":"1615.52"},
{"airline_name":"Riverside Spineflower","flight_no":"RDo-09","price":"851.39"},
{"airline_name":"Pierpoint Springs Dudleya","flight_no":"m9A-34","price":"1496.22"},
{"airline_name":"Fuzzybean","flight_no":"T7q-60","price":"1009.50"},
{"airline_name":"Toothed Sphagnum","flight_no":"cR3-68","price":"1263.23"},
{"airline_name":"Rocky Mountain Buttercup","flight_no":"DRM-82","price":"691.47"},
{"airline_name":"Star Campylium Moss","flight_no":"cQH-76","price":"959.98"},
{"airline_name":"Cockroach Berry","flight_no":"XGH-95","price":"281.18"},
{"airline_name":"Platanillo","flight_no":"IvV-16","price":"795.33"},
{"airline_name":"Climbing Aster","flight_no":"fLh-15","price":"1390.92"},
{"airline_name":"Sawtooth Goldenbush","flight_no":"xgE-30","price":"1225.39"},
{"airline_name":"Big Cypress Star Orchid","flight_no":"47D-14","price":"1210.28"},
{"airline_name":"Texan Syrrhopodon Moss","flight_no":"wjL-79","price":"132.99"},
{"airline_name":"American Ipecac","flight_no":"As3-26","price":"600.68"},
{"airline_name":"Barnacle Lichen","flight_no":"CQQ-73","price":"832.52"},
{"airline_name":"Hairy Corkwood","flight_no":"IML-66","price":"1600.88"},
{"airline_name":"Bigleaf Maple","flight_no":"l84-24","price":"512.33"},
{"airline_name":"Mesa Pepperwort","flight_no":"fxm-83","price":"1364.46"},
{"airline_name":"Lozano's False Indianmallow","flight_no":"kkm-39","price":"680.78"},
{"airline_name":"Snow Currant","flight_no":"MPi-92","price":"403.71"},
{"airline_name":"Vreeland's Saxifrage","flight_no":"edb-76","price":"1779.46"},
{"airline_name":"Columubia Rush","flight_no":"nWk-15","price":"1596.90"},
{"airline_name":"Chocolate Lily","flight_no":"Whn-03","price":"1172.67"},
{"airline_name":"Spiked Hoarypea","flight_no":"jru-30","price":"169.24"},
{"airline_name":"Smooth White Violet","flight_no":"Jjd-98","price":"1919.39"},
{"airline_name":"Canoparmelia Lichen","flight_no":"vN5-89","price":"1351.03"},
{"airline_name":"Bride's Feathers","flight_no":"3RI-55","price":"1007.77"},
{"airline_name":"Water Ragwort","flight_no":"2Ly-07","price":"278.04"},
{"airline_name":"Marsh Straw Sedge","flight_no":"Sn9-93","price":"821.36"},
{"airline_name":"Neofuscelia Lichen","flight_no":"7dG-88","price":"1282.83"},
{"airline_name":"Granite Buckwheat","flight_no":"eo1-18","price":"450.29"},
{"airline_name":"Creeping Lespedeza","flight_no":"ILh-08","price":"1454.10"},
{"airline_name":"Willamette Fleabane","flight_no":"X6V-16","price":"448.78"},
{"airline_name":"Byssoloma Lichen","flight_no":"poW-76","price":"459.30"},
{"airline_name":"Disk Waterhyssop","flight_no":"Bg0-43","price":"1496.65"},
{"airline_name":"Blue Ridge Horsebalm","flight_no":"NQm-02","price":"835.53"},
{"airline_name":"Fringed Orchid","flight_no":"IPL-99","price":"1561.04"},
{"airline_name":"Oxtongue","flight_no":"iQW-21","price":"887.38"},
{"airline_name":"Coastal Plain Heliotrope","flight_no":"ZdP-14","price":"1977.93"},
{"airline_name":"Roughfruit Popcornflower","flight_no":"XGM-64","price":"1599.05"},
{"airline_name":"Yellow Milkwort","flight_no":"l3W-61","price":"457.90"},
{"airline_name":"California Angelica","flight_no":"zfZ-41","price":"1820.74"},
{"airline_name":"Slender False Pennyroyal","flight_no":"Xi8-58","price":"1670.10"},
{"airline_name":"Serviceberry","flight_no":"Rht-70","price":"1924.69"},
{"airline_name":"Bolander's Water-starwort","flight_no":"SF8-90","price":"644.70"},
{"airline_name":"Trotter's Alpineparsley","flight_no":"um0-95","price":"542.38"},
{"airline_name":"Beet","flight_no":"XvP-32","price":"1579.94"},
{"airline_name":"Purpus' Sullivantia","flight_no":"LKJ-03","price":"1183.33"},
{"airline_name":"Spearleaf Arnica","flight_no":"uR4-28","price":"1384.28"},
{"airline_name":"Sawtooth Logwood","flight_no":"u9h-95","price":"302.22"},
{"airline_name":"Bracted Bedstraw","flight_no":"47v-36","price":"1626.56"},
{"airline_name":"Green Phlox","flight_no":"Lwv-25","price":"1512.15"},
{"airline_name":"Sapota","flight_no":"88L-60","price":"392.38"},
{"airline_name":"Luquillo Mountain Hempvine","flight_no":"T71-56","price":"999.90"},
{"airline_name":"Pygmy Cudweed","flight_no":"573-21","price":"1045.76"},
{"airline_name":"Arizona Spinystar","flight_no":"180-74","price":"617.46"},
{"airline_name":"Weissia Moss","flight_no":"0Tl-84","price":"1426.47"},
{"airline_name":"Black Cumin","flight_no":"foh-91","price":"1636.95"},
{"airline_name":"Narrowleaf Silkgrass","flight_no":"UH0-02","price":"1595.19"},
{"airline_name":"Smooth Rodwood","flight_no":"hGp-09","price":"1510.95"},
{"airline_name":"Fecund Schadonia Lichen","flight_no":"rhU-80","price":"754.51"},
{"airline_name":"Parsnipflower Buckwheat","flight_no":"XRb-23","price":"1906.16"},
{"airline_name":"Grand Junction Cryptantha","flight_no":"4XL-97","price":"493.49"},
{"airline_name":"Mountain Lichen","flight_no":"tCi-53","price":"564.94"},
{"airline_name":"Bluebowls","flight_no":"Oke-83","price":"394.33"},
{"airline_name":"Green Cockscomb","flight_no":"tkS-25","price":"1234.83"},
{"airline_name":"Richweed","flight_no":"0g3-42","price":"108.19"},
{"airline_name":"Littleleaf Alumroot","flight_no":"upF-34","price":"200.34"},
{"airline_name":"Coral Necklace","flight_no":"CB8-98","price":"767.88"},
{"airline_name":"Saltmarsh Bird's-beak","flight_no":"nUJ-40","price":"1565.47"},
{"airline_name":"Hians Goosefoot","flight_no":"ZjM-34","price":"1331.73"},
{"airline_name":"Booth's Evening Primrose","flight_no":"KIu-82","price":"360.13"},
{"airline_name":"Mountain Pepperweed","flight_no":"ZC1-06","price":"205.42"},
{"airline_name":"Leavenworth's Tickseed","flight_no":"VTQ-38","price":"230.71"},
{"airline_name":"Florida Cacalia","flight_no":"Ckj-31","price":"1452.37"},
{"airline_name":"Santa Cruz Island Torrey Pine","flight_no":"oqT-50","price":"1489.15"},
{"airline_name":"Southern Quillwort","flight_no":"the-88","price":"226.60"},
{"airline_name":"Bluntseed Sweetroot","flight_no":"ZYZ-85","price":"309.64"},
{"airline_name":"Hebe","flight_no":"eyB-92","price":"109.00"},
{"airline_name":"Diamond Creepingfern","flight_no":"Mqt-49","price":"415.56"},
{"airline_name":"Boldo","flight_no":"X2b-73","price":"1621.57"},
{"airline_name":"Early Shaggytuft","flight_no":"uCT-04","price":"478.59"},
{"airline_name":"Italian Timothy","flight_no":"kdb-87","price":"427.72"},
{"airline_name":"Texas Crabgrass","flight_no":"WS5-74","price":"1234.11"},
{"airline_name":"Rattan","flight_no":"4dB-30","price":"1552.30"},
{"airline_name":"Florida Nutmeg","flight_no":"HVr-99","price":"1961.70"},
{"airline_name":"Greater Straw Sedge","flight_no":"s5l-37","price":"443.20"},
{"airline_name":"Capsella","flight_no":"VCE-25","price":"1561.57"},
{"airline_name":"Santa Catalina Island Bedstraw","flight_no":"18p-68","price":"523.48"},
{"airline_name":"Avens","flight_no":"OlE-56","price":"838.60"},
{"airline_name":"Sandstede's Wart Lichen","flight_no":"YIk-54","price":"310.13"},
{"airline_name":"Poorjoe","flight_no":"Ys4-82","price":"1346.18"},
{"airline_name":"African Mustard","flight_no":"uko-66","price":"1329.25"},
{"airline_name":"Jesuit's Bark","flight_no":"TSD-17","price":"824.25"},
{"airline_name":"Gum Bully","flight_no":"XtI-60","price":"935.94"},
{"airline_name":"Smooth Cliffbrake","flight_no":"1DZ-14","price":"102.79"},
{"airline_name":"Leggett's Pinweed","flight_no":"2xK-01","price":"1183.67"},
{"airline_name":"Pricklypear","flight_no":"0tl-84","price":"1281.68"},
{"airline_name":"Caterpillar Phacelia","flight_no":"W8A-95","price":"897.55"},
{"airline_name":"Tiehm's Blazing Star","flight_no":"Sbp-75","price":"1261.58"},
{"airline_name":"Texas Yucca","flight_no":"5ly-71","price":"1722.76"},
{"airline_name":"Viburnum","flight_no":"dru-96","price":"280.13"},
{"airline_name":"Basin Bellflower","flight_no":"j65-94","price":"1736.81"},
{"airline_name":"East Greenland Saxifrage","flight_no":"1ni-82","price":"168.52"},
{"airline_name":"Severinia","flight_no":"dRr-74","price":"1055.42"},
{"airline_name":"Lacy Maiden Fern","flight_no":"2MU-30","price":"1530.93"},
{"airline_name":"Ruth's Sedge","flight_no":"epS-45","price":"699.38"},
{"airline_name":"Ducklettuce","flight_no":"f5s-48","price":"1513.32"},
{"airline_name":"Cup Lichen","flight_no":"wOR-53","price":"521.33"},
{"airline_name":"Catillaria Lichen","flight_no":"XJy-18","price":"1261.75"},
{"airline_name":"Musk Phlox","flight_no":"Z62-55","price":"871.67"},
{"airline_name":"Portulacaria","flight_no":"kRJ-69","price":"205.95"},
{"airline_name":"Herzogiella Moss","flight_no":"7t3-76","price":"1195.63"},
{"airline_name":"Northern Water Plantain","flight_no":"guw-33","price":"1276.75"},
{"airline_name":"Mycomicrothelia Lichen","flight_no":"cNZ-79","price":"1915.51"},
{"airline_name":"Pride Of Big Pine","flight_no":"JYC-03","price":"1727.31"},
{"airline_name":"Water Yam","flight_no":"0tp-74","price":"553.34"},
{"airline_name":"Kern Brodiaea","flight_no":"uDO-86","price":"1581.09"},
{"airline_name":"Wild Oilnut","flight_no":"bkP-04","price":"1631.29"},
{"airline_name":"Symmetric Sanionia Moss","flight_no":"OQQ-02","price":"1273.10"},
{"airline_name":"Hall's Fleabane","flight_no":"zjq-73","price":"1425.03"},
{"airline_name":"Arborescent Pricklypear","flight_no":"7iA-60","price":"1782.14"},
{"airline_name":"Jelly Lichen","flight_no":"zMz-24","price":"1535.34"},
{"airline_name":"Broadtooth Hedgenettle","flight_no":"9pY-10","price":"1532.84"},
{"airline_name":"Teliostachya","flight_no":"ehp-61","price":"850.45"},
{"airline_name":"Needle's Buckwheat","flight_no":"dVo-57","price":"1562.54"},
{"airline_name":"Hairybroom","flight_no":"YeJ-69","price":"1224.52"},
{"airline_name":"Santa Fe Milkvetch","flight_no":"hCU-36","price":"1752.24"},
{"airline_name":"Turk's Head","flight_no":"iuc-17","price":"1819.16"},
{"airline_name":"Missouri Foxtail Cactus","flight_no":"1tr-92","price":"802.86"},
{"airline_name":"Slender Spikerush","flight_no":"YHs-48","price":"1473.28"},
{"airline_name":"California Triquetrella Moss","flight_no":"cy2-08","price":"953.77"},
{"airline_name":"Island Mistletoe","flight_no":"0fv-64","price":"1128.21"},
{"airline_name":"Mountain Crownbeard","flight_no":"jtz-17","price":"1550.65"},
{"airline_name":"Hawthorn","flight_no":"ZAF-57","price":"1970.81"},
{"airline_name":"Boxelder","flight_no":"mOC-00","price":"1911.00"},
{"airline_name":"American Wintergreen","flight_no":"1fK-10","price":"1426.71"},
{"airline_name":"Desert Lovegrass","flight_no":"nE9-15","price":"989.57"},
{"airline_name":"Texas Venus' Looking-glass","flight_no":"LCs-79","price":"293.92"},
{"airline_name":"Psorula Lichen","flight_no":"fmy-18","price":"1177.59"},
{"airline_name":"Luckynut","flight_no":"Tq5-10","price":"1869.68"},
{"airline_name":"Spidergrass","flight_no":"NQz-56","price":"181.56"},
{"airline_name":"Willowherb","flight_no":"SoX-62","price":"1264.92"},
{"airline_name":"Meyen's Twinsorus Fern","flight_no":"wup-12","price":"480.81"},
{"airline_name":"Strapleaf Willow","flight_no":"hih-08","price":"1753.48"},
{"airline_name":"Carolina Geranium","flight_no":"vD5-06","price":"190.40"},
{"airline_name":"Privet","flight_no":"lHq-63","price":"1793.90"},
{"airline_name":"Escoba Parada","flight_no":"Np8-05","price":"1756.88"},
{"airline_name":"Buckeye","flight_no":"7Ee-04","price":"1711.30"},
{"airline_name":"Dakota Mock Vervain","flight_no":"buP-41","price":"826.87"},
{"airline_name":"Hooked Pincushionplant","flight_no":"haF-91","price":"1638.31"},
{"airline_name":"Prieur's Umbrellagrass","flight_no":"nde-45","price":"1686.52"},
{"airline_name":"Niguita","flight_no":"3EZ-04","price":"317.54"},
{"airline_name":"Droophead Tufted Airplant","flight_no":"sgL-27","price":"1318.09"},
{"airline_name":"Dwarf Brodiaea","flight_no":"YIq-55","price":"1029.71"},
{"airline_name":"Crisped Mock Vervain","flight_no":"Fzd-07","price":"407.99"},
{"airline_name":"Magalospora Lichen","flight_no":"Gxd-42","price":"436.07"},
{"airline_name":"Silky Thatching Grass","flight_no":"6AL-65","price":"1239.33"},
{"airline_name":"Denuded Pseudoleskea Moss","flight_no":"lea-48","price":"1418.78"},
{"airline_name":"Purple Rattlesnakeroot","flight_no":"4Xa-48","price":"1418.72"},
{"airline_name":"Rosette Lichen","flight_no":"2BE-44","price":"1729.73"},
{"airline_name":"Prieur's Umbrellagrass","flight_no":"aUF-38","price":"1515.97"},
{"airline_name":"Dwarf Chamaesaracha","flight_no":"3qO-53","price":"1215.69"},
{"airline_name":"Datura","flight_no":"Vp7-67","price":"1487.59"},
{"airline_name":"Gray Gum","flight_no":"czX-00","price":"311.20"},
{"airline_name":"Arctic Wart Lichen","flight_no":"7o5-02","price":"1797.47"},
{"airline_name":"Yellow Pepperweed","flight_no":"NYP-93","price":"1999.08"},
{"airline_name":"Watercrown Grass","flight_no":"vw2-35","price":"1964.52"},
{"airline_name":"Caulostramina","flight_no":"Ck3-57","price":"920.17"},
{"airline_name":"Field Locoweed","flight_no":"fAN-43","price":"429.32"},
{"airline_name":"Different-nerve Sedge","flight_no":"xvT-92","price":"1736.38"},
{"airline_name":"Agueweed","flight_no":"Uz4-36","price":"857.79"},
{"airline_name":"Seep Arnica","flight_no":"SYh-12","price":"1596.63"},
{"airline_name":"Giant Bellflower","flight_no":"K1I-63","price":"570.42"},
{"airline_name":"Pinleaf Vervain","flight_no":"Csj-02","price":"773.35"},
{"airline_name":"Gomphillus Lichen","flight_no":"GSp-34","price":"402.04"},
{"airline_name":"Lecidea Lichen","flight_no":"Xxa-05","price":"1112.99"},
{"airline_name":"Mentor Barberry","flight_no":"Bdi-82","price":"1274.45"},
{"airline_name":"Greek Oregano","flight_no":"x9W-95","price":"205.12"},
{"airline_name":"Atwood's Cryptantha","flight_no":"Rfu-52","price":"1399.15"},
{"airline_name":"Parish's Broomrape","flight_no":"eXd-73","price":"562.38"},
{"airline_name":"Orange Cotoneaster","flight_no":"SO1-70","price":"1799.79"},
{"airline_name":"Summer Spurge","flight_no":"RO6-11","price":"692.26"},
{"airline_name":"Cup Lichen","flight_no":"pvS-17","price":"1070.49"},
{"airline_name":"Sulphur-flower Buckwheat","flight_no":"ftC-92","price":"1135.66"},
{"airline_name":"Dixie Rosemallow","flight_no":"C79-98","price":"522.62"},
{"airline_name":"Bladder Campion","flight_no":"yA2-11","price":"1777.79"},
{"airline_name":"Woodbury's Lidflower","flight_no":"2kL-14","price":"260.75"},
{"airline_name":"Tennessee Quillwort","flight_no":"hMT-73","price":"1885.94"},
{"airline_name":"Mountain Carpet Clover","flight_no":"ej7-38","price":"1321.19"},
{"airline_name":"Latin American Mock Vervain","flight_no":"gCi-91","price":"1519.20"},
{"airline_name":"Pandanus","flight_no":"CKW-06","price":"1102.70"},
{"airline_name":"Northern Marsh Yellowcress","flight_no":"9ff-78","price":"1666.23"},
{"airline_name":"False Spotted St. Johnswort","flight_no":"7n9-11","price":"809.20"},
{"airline_name":"Maui Hala Pepe","flight_no":"gKI-69","price":"373.20"},
{"airline_name":"Spanish Needles","flight_no":"WAP-73","price":"126.90"},
{"airline_name":"Coastal Mock Vervain","flight_no":"5eh-32","price":"533.89"},
{"airline_name":"Tundra Alkaligrass","flight_no":"U0O-03","price":"522.24"},
{"airline_name":"Oak Creek Ragwort","flight_no":"Iql-39","price":"902.83"},
{"airline_name":"Teal Lovegrass","flight_no":"fw3-92","price":"1227.72"},
{"airline_name":"Mountain Pride","flight_no":"GXd-64","price":"1842.12"},
{"airline_name":"Palo Colorado","flight_no":"Wyk-85","price":"153.57"},
{"airline_name":"Pygmyflower Rockjasmine","flight_no":"PuX-92","price":"827.28"},
{"airline_name":"Halodule","flight_no":"fkj-08","price":"590.52"},
{"airline_name":"Lonomea","flight_no":"Hop-89","price":"475.60"},
{"airline_name":"Gmelin's Sedge","flight_no":"1yQ-49","price":"1746.46"},
{"airline_name":"Mono Buckwheat","flight_no":"w65-84","price":"1736.77"},
{"airline_name":"Northern Bog Violet","flight_no":"WyQ-67","price":"139.16"},
{"airline_name":"Map Lichen","flight_no":"0jD-73","price":"1279.95"},
{"airline_name":"Prairie Bluebells","flight_no":"UjZ-72","price":"266.98"},
{"airline_name":"Kei Apple","flight_no":"oUD-56","price":"1818.68"},
{"airline_name":"Stalked Saltbush","flight_no":"jzg-84","price":"856.05"},
{"airline_name":"Okanoga Bedstraw","flight_no":"XCj-08","price":"1954.31"},
{"airline_name":"Dooryard Dock","flight_no":"19v-62","price":"840.01"},
{"airline_name":"Lyall's Beardtongue","flight_no":"fn2-70","price":"800.80"},
{"airline_name":"Skin Lichen","flight_no":"Cve-40","price":"1599.57"},
{"airline_name":"Dictyonema Lichen","flight_no":"qqu-89","price":"338.98"},
{"airline_name":"Trans-pecos Beeblossom","flight_no":"4Mc-41","price":"1844.42"},
{"airline_name":"Fringed Orchid","flight_no":"cpv-37","price":"793.99"},
{"airline_name":"Creosote Bush","flight_no":"60v-57","price":"1969.48"},
{"airline_name":"Heim's Desmatodon Moss","flight_no":"6qB-30","price":"1341.35"},
{"airline_name":"Carolina Grasswort","flight_no":"5Wl-47","price":"288.05"},
{"airline_name":"Skin Lichen","flight_no":"j0A-93","price":"1191.69"},
{"airline_name":"Bourgeau's Nutrush","flight_no":"8bl-99","price":"599.02"},
{"airline_name":"Michelia","flight_no":"SQ5-49","price":"1725.87"},
{"airline_name":"Redflower Buckwheat","flight_no":"viZ-41","price":"848.13"},
{"airline_name":"Garden Tomato","flight_no":"wPv-28","price":"1214.20"},
{"airline_name":"Claspingleaf Doll's Daisy","flight_no":"Iiw-88","price":"782.63"},
{"airline_name":"Dimpled Troutlily","flight_no":"ZZK-06","price":"1905.97"},
{"airline_name":"Broadleaf Lupine","flight_no":"VJW-27","price":"789.41"},
{"airline_name":"King's Ragwort","flight_no":"agS-20","price":"301.34"},
{"airline_name":"Gilman's Springparsley","flight_no":"GVs-76","price":"1384.11"},
{"airline_name":"Purple Mountain Saxifrage","flight_no":"TZQ-54","price":"1655.41"},
{"airline_name":"Bristly Bedstraw","flight_no":"ynp-40","price":"179.58"},
{"airline_name":"Rhexophyllum Moss","flight_no":"QGx-19","price":"767.86"},
{"airline_name":"Ferntree","flight_no":"N7d-76","price":"626.12"},
{"airline_name":"Low Woollygrass","flight_no":"edn-36","price":"1092.52"},
{"airline_name":"Hoary Basil","flight_no":"lxw-58","price":"173.95"},
{"airline_name":"Tygh Valley Milkvetch","flight_no":"CfA-88","price":"1415.71"},
{"airline_name":"Wingleaf Soapberry","flight_no":"8h1-23","price":"1549.46"},
{"airline_name":"Desertbells","flight_no":"0re-83","price":"251.43"},
{"airline_name":"Cluster Rose","flight_no":"mFe-81","price":"1541.77"},
{"airline_name":"Kingcup Cactus","flight_no":"hV7-01","price":"1380.29"},
{"airline_name":"Perez's Sea Lavender","flight_no":"Hbd-48","price":"1491.39"},
{"airline_name":"Burningbush","flight_no":"CQ4-67","price":"397.53"},
{"airline_name":"Cup Lichen","flight_no":"xJ3-86","price":"500.66"},
{"airline_name":"Mangrovevine","flight_no":"CNR-48","price":"1459.02"},
{"airline_name":"Cithara Buckwheat","flight_no":"u95-16","price":"871.53"},
{"airline_name":"Hairpin Banksia","flight_no":"Afo-50","price":"304.59"},
{"airline_name":"Purple Tiger Orchid","flight_no":"wCf-68","price":"190.65"},
{"airline_name":"Rebutia","flight_no":"J7F-55","price":"482.34"},
{"airline_name":"Pili Nehe","flight_no":"LWI-23","price":"251.66"},
{"airline_name":"Adams' Manzanita","flight_no":"DO6-58","price":"171.81"},
{"airline_name":"Erect Pricklypear","flight_no":"MGU-57","price":"1979.57"},
{"airline_name":"Mecca Woodyaster","flight_no":"h7f-67","price":"1094.73"},
{"airline_name":"Arrowleaf Clover","flight_no":"cs2-29","price":"681.95"},
{"airline_name":"Beckwith's Rockcress","flight_no":"kxp-01","price":"1900.14"},
{"airline_name":"Catesby's False Bindweed","flight_no":"GRm-87","price":"176.36"},
{"airline_name":"Xanthoparmelia Lichen","flight_no":"RT2-57","price":"1008.94"},
{"airline_name":"Evergreen Bugloss","flight_no":"WMi-04","price":"517.00"},
{"airline_name":"Sulcaria Lichen","flight_no":"aaZ-86","price":"1056.17"},
{"airline_name":"Rose-gold Pussy Willow","flight_no":"83n-44","price":"655.86"},
{"airline_name":"Cyrtandra","flight_no":"JUg-73","price":"254.77"},
{"airline_name":"New York Fern","flight_no":"ujP-81","price":"1845.16"},
{"airline_name":"Arthothelium Lichen","flight_no":"8cW-03","price":"516.16"},
{"airline_name":"Pseudephemerum Moss","flight_no":"k7R-30","price":"1385.33"},
{"airline_name":"Lemmon's Poppy","flight_no":"AF3-40","price":"832.66"},
{"airline_name":"Tropical Bog Orchid","flight_no":"Ul0-63","price":"1372.52"},
{"airline_name":"Polymeridium Lichen","flight_no":"nNY-50","price":"1085.98"},
{"airline_name":"Lesser Duckweed","flight_no":"Zkz-69","price":"1422.97"},
{"airline_name":"Thurber's Diphysa","flight_no":"PA0-23","price":"903.47"},
{"airline_name":"Hilend's Bedstraw","flight_no":"vCT-92","price":"895.01"},
{"airline_name":"Tricolor Daisy","flight_no":"yQv-60","price":"672.49"},
{"airline_name":"Open Lupine","flight_no":"v7d-30","price":"1416.65"},
{"airline_name":"Shasta River Mariposa Lily","flight_no":"Cg8-82","price":"1131.06"},
{"airline_name":"Miniature Marigold","flight_no":"yYK-14","price":"1700.29"},
{"airline_name":"Timberline Bluegrass","flight_no":"fsM-47","price":"1100.18"},
{"airline_name":"Tietongue","flight_no":"xCC-96","price":"747.76"},
{"airline_name":"Brewer's Fleabane","flight_no":"11S-93","price":"314.36"},
{"airline_name":"Burgess' Broomsage","flight_no":"IIu-34","price":"522.96"},
{"airline_name":"Pequi","flight_no":"Mie-92","price":"1191.70"},
{"airline_name":"Fingerleaf Gourd","flight_no":"18q-62","price":"435.66"},
{"airline_name":"Graffenrieda","flight_no":"alM-31","price":"1027.85"},
{"airline_name":"Lecidea Lichen","flight_no":"krn-52","price":"1733.49"},
{"airline_name":"Puerto Rico Jumby Pepper","flight_no":"0tT-87","price":"290.26"},
{"airline_name":"Cutleaf Monkeyflower","flight_no":"cvD-88","price":"719.98"},
{"airline_name":"Oregon Whitetop Aster","flight_no":"k7U-78","price":"741.16"},
{"airline_name":"Milolii Kopiwai","flight_no":"lKU-40","price":"815.31"},
{"airline_name":"Fontinalis Moss","flight_no":"TGi-87","price":"453.12"},
{"airline_name":"Browne's Poisonwood","flight_no":"BQt-70","price":"1368.58"},
{"airline_name":"Oak Creek Ragwort","flight_no":"wVH-90","price":"686.03"},
{"airline_name":"Brown Stringybark","flight_no":"d6X-30","price":"1473.26"},
{"airline_name":"Rinodina Lichen","flight_no":"97J-86","price":"374.76"},
{"airline_name":"Splitleaf Groundsel","flight_no":"IGE-17","price":"1563.33"},
{"airline_name":"Pyrgillus Lichen","flight_no":"kfz-90","price":"1922.02"},
{"airline_name":"Navajo Cinquefoil","flight_no":"hvz-73","price":"907.03"},
{"airline_name":"Pearlflower","flight_no":"O3U-18","price":"1939.30"},
{"airline_name":"Rockcress","flight_no":"ih4-30","price":"460.77"},
{"airline_name":"Serpentine Bedstraw","flight_no":"llh-75","price":"146.39"},
{"airline_name":"False Jagged-ckickweed","flight_no":"aWC-49","price":"1251.09"},
{"airline_name":"Tigertongue","flight_no":"10x-43","price":"623.01"},
{"airline_name":"California Laurel","flight_no":"b4J-78","price":"1374.08"},
{"airline_name":"Bejuco De Lira","flight_no":"S9c-58","price":"361.47"},
{"airline_name":"Sticky Chinese Houses","flight_no":"LmS-68","price":"757.10"},
{"airline_name":"Aridland Goosefoot","flight_no":"Vuo-15","price":"981.56"},
{"airline_name":"Leather Flower","flight_no":"oVh-05","price":"547.21"},
{"airline_name":"Woodfern","flight_no":"P1m-92","price":"1712.36"},
{"airline_name":"Azure Blue Sage","flight_no":"RqA-97","price":"976.60"},
{"airline_name":"Largefruit Sand Verbena","flight_no":"Dz5-75","price":"503.91"},
{"airline_name":"Arrowhead Maiden Fern","flight_no":"QPA-39","price":"1432.87"},
{"airline_name":"Narrowleaf Skullcap","flight_no":"h40-54","price":"1848.62"},
{"airline_name":"Eucalyptus","flight_no":"MbG-50","price":"1401.40"},
{"airline_name":"Idaho Esslingeriana Lichen","flight_no":"CDn-35","price":"1433.09"},
{"airline_name":"Stately Maiden Fern","flight_no":"eHE-24","price":"1017.83"},
{"airline_name":"Man To Man","flight_no":"jEy-64","price":"729.03"},
{"airline_name":"Wart Lichen","flight_no":"Dv9-90","price":"1489.81"},
{"airline_name":"Platyhypnidium Moss","flight_no":"mSu-70","price":"1599.93"},
{"airline_name":"Hybrid Oak","flight_no":"gDF-66","price":"1105.35"},
{"airline_name":"Hybrid Oak","flight_no":"dhf-26","price":"1570.69"},
{"airline_name":"Arctic Dock","flight_no":"I0O-39","price":"317.62"},
{"airline_name":"Goldenstar","flight_no":"3X1-27","price":"1425.82"},
{"airline_name":"Heartleaf Arnica","flight_no":"kP0-73","price":"1020.68"},
{"airline_name":"Babington's Graphina Lichen","flight_no":"6MJ-46","price":"828.06"},
{"airline_name":"Wild Chestnut","flight_no":"NHX-50","price":"1862.86"},
{"airline_name":"Star Gilia","flight_no":"9UV-95","price":"261.49"},
{"airline_name":"Summit Lupine","flight_no":"uAj-96","price":"664.02"},
{"airline_name":"Shineseed","flight_no":"Dum-23","price":"1313.24"},
{"airline_name":"Centratherum","flight_no":"xV6-18","price":"158.00"},
{"airline_name":"Woolbearing Dandelion","flight_no":"Ym4-66","price":"1537.99"},
{"airline_name":"Summer Snowflake","flight_no":"26F-69","price":"967.43"},
{"airline_name":"Shrubby Milkwort","flight_no":"2Wm-24","price":"1871.20"},
{"airline_name":"Quillwort","flight_no":"ENK-25","price":"321.39"},
{"airline_name":"Sticky Tofieldia","flight_no":"jAc-29","price":"457.01"},
{"airline_name":"Oval Kumquat","flight_no":"hCd-32","price":"1296.34"},
{"airline_name":"Arizona Eryngo","flight_no":"NQ0-25","price":"1457.97"},
{"airline_name":"Proctor's Ironweed","flight_no":"ZSQ-92","price":"700.42"},
{"airline_name":"Fendler's Horsenettle","flight_no":"iIB-13","price":"302.49"},
{"airline_name":"Hairy Sunflower","flight_no":"GB5-10","price":"805.40"},
{"airline_name":"White Colorado Columbine","flight_no":"24O-97","price":"621.79"},
{"airline_name":"Kettle Falls Lupine","flight_no":"QVq-69","price":"1097.60"},
{"airline_name":"Lyall's Polytrichum Moss","flight_no":"v8I-76","price":"1059.68"},
{"airline_name":"Lecidella Lichen","flight_no":"mCl-11","price":"1806.32"},
{"airline_name":"Pygmy Bamboo","flight_no":"C9K-39","price":"160.66"},
{"airline_name":"Bertero's Mistletoe","flight_no":"ZsA-12","price":"1680.96"},
{"airline_name":"Finger Millet","flight_no":"8Ny-40","price":"1981.28"},
{"airline_name":"Gambel Oak","flight_no":"1G0-28","price":"1032.03"},
{"airline_name":"Common Tarweed","flight_no":"ca6-99","price":"1962.15"},
{"airline_name":"Small-leaf Snoutbean","flight_no":"vxn-43","price":"474.59"},
{"airline_name":"Montagne's Cartilage Lichen","flight_no":"tsE-47","price":"918.14"},
{"airline_name":"Pitted Onion","flight_no":"s3X-29","price":"398.58"},
{"airline_name":"Whipple Cholla","flight_no":"Yab-83","price":"1836.23"},
{"airline_name":"Wineflower","flight_no":"6lY-54","price":"852.19"},
{"airline_name":"Scutula Lichen","flight_no":"q2r-18","price":"508.34"},
{"airline_name":"Narrowleaf Hawkweed","flight_no":"2IC-70","price":"1110.29"},
{"airline_name":"Cottongrass","flight_no":"H9z-93","price":"623.05"},
{"airline_name":"Laurel Sassafras","flight_no":"Gcq-34","price":"510.52"},
{"airline_name":"Atlantic Cup Lichen","flight_no":"iOF-88","price":"1004.42"},
{"airline_name":"Chaenothecopsis Lichen","flight_no":"eOB-45","price":"385.31"},
{"airline_name":"Blochman's Liveforever","flight_no":"MGz-00","price":"1205.12"},
{"airline_name":"Shrubby Milkwort","flight_no":"vq2-56","price":"122.14"},
{"airline_name":"Dudley Bluffs Twinpod","flight_no":"0HR-28","price":"1906.61"},
{"airline_name":"Smallflower Hawksbeard","flight_no":"1t8-59","price":"141.55"},
{"airline_name":"Holboell's Rockcress","flight_no":"wRF-95","price":"1217.24"},
{"airline_name":"Soft Thistle","flight_no":"nB9-63","price":"705.11"},
{"airline_name":"Meadow Alexanders","flight_no":"YOL-64","price":"1726.19"},
{"airline_name":"Railwaycreeper","flight_no":"6Pi-11","price":"1114.69"},
{"airline_name":"Sierra Ancha Fleabane","flight_no":"EKF-69","price":"830.60"},
{"airline_name":"Mottled Dutchman's Pipe","flight_no":"7Xb-50","price":"612.24"},
{"airline_name":"Slender-fruit Beaksedge","flight_no":"dMs-41","price":"564.60"},
{"airline_name":"American Trailplant","flight_no":"bAf-78","price":"1009.38"},
{"airline_name":"Lime Fern","flight_no":"Pvu-67","price":"574.80"},
{"airline_name":"'ena'ena","flight_no":"FfM-27","price":"1145.24"},
{"airline_name":"Glossy Abelia","flight_no":"t1X-22","price":"289.47"},
{"airline_name":"Crested Arrowhead","flight_no":"hyL-97","price":"401.92"},
{"airline_name":"Arizona Pottia Moss","flight_no":"13n-75","price":"580.66"},
{"airline_name":"Bearberry Willow","flight_no":"Q5S-38","price":"803.71"},
{"airline_name":"Canelillo","flight_no":"0Us-71","price":"323.58"},
{"airline_name":"San Bernardino Vervain","flight_no":"QUb-09","price":"308.37"},
{"airline_name":"California Horkelia","flight_no":"Ozf-24","price":"884.70"},
{"airline_name":"Subterranean Vetch","flight_no":"Z1v-51","price":"495.24"},
{"airline_name":"Bolander's Mock Dandelion","flight_no":"KPh-83","price":"1291.55"},
{"airline_name":"Inyo Lupine","flight_no":"6Gb-11","price":"952.43"},
{"airline_name":"Slender Saltbush","flight_no":"WFr-32","price":"1712.68"},
{"airline_name":"Hairyleaf Rush","flight_no":"6yB-21","price":"540.06"},
{"airline_name":"Thinleaf Late Purple Aster","flight_no":"KoB-48","price":"1652.71"},
{"airline_name":"Volcanic Buckwheat","flight_no":"7XE-36","price":"1548.26"},
{"airline_name":"Curved Woodrush","flight_no":"IZ2-53","price":"1811.76"},
{"airline_name":"Yosemite Stonecrop","flight_no":"iwO-06","price":"1109.83"},
{"airline_name":"Pimientillo","flight_no":"wFs-12","price":"871.26"},
{"airline_name":"Hill Cane","flight_no":"Laq-03","price":"1025.18"},
{"airline_name":"Arizona Milkvetch","flight_no":"BaP-17","price":"1938.36"},
{"airline_name":"Payson's Milkvetch","flight_no":"1Ba-06","price":"1929.61"},
{"airline_name":"Brazos Milkvetch","flight_no":"dto-44","price":"461.09"},
{"airline_name":"Mexican Starwort","flight_no":"2c0-09","price":"551.56"},
{"airline_name":"Arizona Four-nerve Daisy","flight_no":"qHd-68","price":"688.62"},
{"airline_name":"Leathery Pore Lichen","flight_no":"OCj-71","price":"1603.69"},
{"airline_name":"Compact Prairie Clover","flight_no":"zbX-52","price":"1057.33"},
{"airline_name":"Chiodecton Lichen","flight_no":"03o-54","price":"790.08"},
{"airline_name":"Asiatic Dogwood","flight_no":"GXS-95","price":"776.35"},
{"airline_name":"Combleaf Rockcap Fern","flight_no":"QKq-90","price":"1337.60"},
{"airline_name":"Hybrid Ryegrass","flight_no":"uA1-39","price":"1519.92"},
{"airline_name":"Holio","flight_no":"UJo-85","price":"1126.24"},
{"airline_name":"Desert Hawthorn","flight_no":"4Wl-05","price":"1921.40"},
{"airline_name":"Tracy's Collomia","flight_no":"Bdz-67","price":"1521.24"},
{"airline_name":"Sweetflag","flight_no":"XGr-35","price":"658.26"},
{"airline_name":"Leucodon Moss","flight_no":"t6e-55","price":"1069.14"},
{"airline_name":"Arizona Beggarticks","flight_no":"uJi-48","price":"817.82"},
{"airline_name":"Plateilema","flight_no":"Vjo-01","price":"1220.30"},
{"airline_name":"Klamath Plum","flight_no":"e7e-48","price":"630.55"},
{"airline_name":"Incised Halberd Fern","flight_no":"fjj-11","price":"669.06"},
{"airline_name":"Woodhouse's Phlox","flight_no":"Bhk-91","price":"1931.61"},
{"airline_name":"Foxtail Pine","flight_no":"hQ2-84","price":"1771.62"},
{"airline_name":"Dakota Sarcogyne Lichen","flight_no":"cvb-52","price":"741.59"},
{"airline_name":"Trailplant","flight_no":"9Gd-48","price":"123.07"},
{"airline_name":"Poeltinula Lichen","flight_no":"FyP-79","price":"1753.01"},
{"airline_name":"Quill-leaf Lewisia","flight_no":"5Ao-84","price":"705.06"},
{"airline_name":"Maracaibo Lignumvitae","flight_no":"i6H-71","price":"1037.90"},
{"airline_name":"Bristleleaf Pricklyleaf","flight_no":"lty-12","price":"1109.87"},
{"airline_name":"Thompson's Buckwheat","flight_no":"AAy-26","price":"1095.85"},
{"airline_name":"Small's Rainlily","flight_no":"ufT-79","price":"601.86"},
{"airline_name":"Cattail Grass","flight_no":"Xq2-90","price":"1239.53"},
{"airline_name":"Slender Panicgrass","flight_no":"Ffb-97","price":"979.63"},
{"airline_name":"Boreal Draba","flight_no":"oH5-25","price":"1039.03"},
{"airline_name":"Spreading Phlox","flight_no":"ohv-91","price":"1590.70"},
{"airline_name":"Garcinia","flight_no":"kXJ-20","price":"296.36"},
{"airline_name":"Fernleaf Yellow False Foxglove","flight_no":"Knc-84","price":"664.83"},
{"airline_name":"Roble Beech","flight_no":"zM5-79","price":"568.06"},
{"airline_name":"Puerto Rico Halberd Fern","flight_no":"iII-07","price":"139.54"},
{"airline_name":"Diamondpetal California Poppy","flight_no":"oR3-89","price":"704.21"},
{"airline_name":"Halberdleaf Tearthumb","flight_no":"Gej-42","price":"1523.29"},
{"airline_name":"Taiwan Kudzu","flight_no":"q9z-55","price":"1389.44"},
{"airline_name":"Indianpipe","flight_no":"Edl-68","price":"1909.73"},
{"airline_name":"Scarlet Jungleflame","flight_no":"vST-97","price":"259.36"},
{"airline_name":"Largeflower Hawksbeard","flight_no":"zlJ-15","price":"115.49"},
{"airline_name":"Himalayan Fleabane","flight_no":"7SC-70","price":"1567.63"},
{"airline_name":"Butterfly Pea","flight_no":"5VX-40","price":"1637.37"},
{"airline_name":"Henderson's Checkerbloom","flight_no":"qhu-89","price":"1933.19"},
{"airline_name":"Arid Throne Fleabane","flight_no":"mNT-99","price":"983.81"},
{"airline_name":"Thickhead Sedge","flight_no":"Eey-71","price":"1525.91"},
{"airline_name":"Cracked Lichen","flight_no":"wAH-71","price":"1851.08"},
{"airline_name":"Giant Flatsedge","flight_no":"eDj-22","price":"1958.68"},
{"airline_name":"Parish's Broomrape","flight_no":"vR2-90","price":"1558.87"},
{"airline_name":"Agassiz's Schistidium Moss","flight_no":"92X-85","price":"376.90"},
{"airline_name":"New England Blue Violet","flight_no":"8zp-58","price":"1364.90"},
{"airline_name":"Shaggy Blackfoot","flight_no":"hLP-93","price":"110.17"},
{"airline_name":"Gonzalagunia","flight_no":"v1n-43","price":"384.03"},
{"airline_name":"Flatcrown Buckwheat","flight_no":"IWX-83","price":"885.74"},
{"airline_name":"Plummer's Siltbush","flight_no":"ZGM-14","price":"1116.83"},
{"airline_name":"Mt. Etna Broom","flight_no":"uKg-80","price":"1007.98"},
{"airline_name":"Bonpland's Croton","flight_no":"gOc-48","price":"354.73"},
{"airline_name":"Saffron Ragwort","flight_no":"AsE-97","price":"1310.36"},
{"airline_name":"Anisomeridium Lichen","flight_no":"e7u-74","price":"1960.41"},
{"airline_name":"Southern Dewberry","flight_no":"foB-54","price":"1148.65"},
{"airline_name":"Creeping Blueberry","flight_no":"qDr-17","price":"870.03"},
{"airline_name":"Devil Cholla","flight_no":"PyV-56","price":"1847.06"},
{"airline_name":"Giant Flatsedge","flight_no":"apj-68","price":"1415.15"},
{"airline_name":"Freckled Milkvetch","flight_no":"aaF-03","price":"395.56"},
{"airline_name":"Wildrye","flight_no":"M5S-76","price":"1248.58"},
{"airline_name":"Common Pear","flight_no":"Euv-40","price":"1691.65"},
{"airline_name":"Rough Bedstraw","flight_no":"oI8-15","price":"1964.45"},
{"airline_name":"Palespike Lobelia","flight_no":"4J0-09","price":"577.81"},
{"airline_name":"Giant Airplant","flight_no":"GE7-04","price":"1784.76"},
{"airline_name":"Hybrid Hickory","flight_no":"NLp-05","price":"382.63"},
{"airline_name":"Whipplea","flight_no":"vxQ-82","price":"1736.93"},
{"airline_name":"Fig","flight_no":"xpS-48","price":"1079.29"},
{"airline_name":"Lanceleaf Goldenweed","flight_no":"cWZ-35","price":"1774.78"},
{"airline_name":"Syrian Mesquite","flight_no":"SJ0-79","price":"407.31"},
{"airline_name":"Clammy Clover","flight_no":"9ov-00","price":"1293.28"},
{"airline_name":"Coolwort","flight_no":"ZUK-77","price":"1214.97"},
{"airline_name":"Crown Of Thorns","flight_no":"l0a-44","price":"863.79"},
{"airline_name":"Smallflower Indian Paintbrush","flight_no":"3BO-69","price":"1992.42"},
{"airline_name":"Fuzzytongue Penstemon","flight_no":"by5-52","price":"1145.05"},
{"airline_name":"Puerto Rico Lidflower","flight_no":"xjW-16","price":"329.19"},
{"airline_name":"Tall Ironweed","flight_no":"zOB-31","price":"480.04"},
{"airline_name":"Bolander's Quillwort","flight_no":"0uT-59","price":"1470.37"},
{"airline_name":"Yager's Woollystar","flight_no":"6Os-85","price":"1193.40"},
{"airline_name":"Cerebral Fishscale Lichen","flight_no":"pIK-62","price":"1596.47"},
{"airline_name":"Cryptic Desert Poppy","flight_no":"OMg-68","price":"363.79"},
{"airline_name":"Grassland Sedge","flight_no":"6V8-96","price":"754.36"},
{"airline_name":"Hawkbit","flight_no":"cCy-22","price":"1067.87"},
{"airline_name":"Brewer's Sedge","flight_no":"E2j-86","price":"1678.95"},
{"airline_name":"Venezuelan Treebine","flight_no":"kNH-72","price":"1984.14"},
{"airline_name":"Snowberry","flight_no":"wsa-68","price":"861.51"},
{"airline_name":"Beardless Wheatgrass","flight_no":"ZEQ-55","price":"562.58"},
{"airline_name":"Hernando County Noddingcaps","flight_no":"6h4-36","price":"1863.11"},
{"airline_name":"Melanomma Lichen","flight_no":"PtH-27","price":"1602.62"},
{"airline_name":"Mahoe","flight_no":"MAt-85","price":"1145.30"},
{"airline_name":"Dot Lichen","flight_no":"V9E-77","price":"880.68"},
{"airline_name":"Aleppo Oak","flight_no":"Sg5-94","price":"389.27"},
{"airline_name":"Spreading Cotoneaster","flight_no":"jg1-08","price":"979.20"},
{"airline_name":"Philonotis Moss","flight_no":"VJ2-86","price":"1173.14"},
{"airline_name":"'uiwi","flight_no":"mES-86","price":"520.27"},
{"airline_name":"Arrowleaf Cyrtandra","flight_no":"Cky-57","price":"1039.52"},
{"airline_name":"Yellow Phacelia","flight_no":"gPz-03","price":"1937.63"},
{"airline_name":"Sudetic Lousewort","flight_no":"5I6-61","price":"560.07"},
{"airline_name":"Caribbean Beaksedge","flight_no":"ieo-72","price":"1475.63"},
{"airline_name":"Broom Milkwort","flight_no":"GVd-13","price":"1197.01"},
{"airline_name":"Woollyhead Clover","flight_no":"Hb9-03","price":"882.97"},
{"airline_name":"Luffa","flight_no":"25O-17","price":"841.57"},
{"airline_name":"Mancos Rose","flight_no":"uCz-40","price":"821.33"},
{"airline_name":"Chaenothecopsis Lichen","flight_no":"ma9-87","price":"1022.33"},
{"airline_name":"Tuberose","flight_no":"ROY-20","price":"1756.28"},
{"airline_name":"Fewflower Navarretia","flight_no":"urB-46","price":"125.52"},
{"airline_name":"Virgilia","flight_no":"EQp-14","price":"1527.18"},
{"airline_name":"Scaleflower Dodder","flight_no":"2u7-45","price":"701.75"},
{"airline_name":"Inyo Buckwheat","flight_no":"Ggp-38","price":"1822.37"},
{"airline_name":"Broadleaf Rice","flight_no":"yRe-98","price":"366.34"},
{"airline_name":"Red Maple","flight_no":"wYU-69","price":"604.90"},
{"airline_name":"Lecania Lichen","flight_no":"LIm-76","price":"1677.52"},
{"airline_name":"Bastard Hogberry","flight_no":"5B8-57","price":"298.24"},
{"airline_name":"Curl-leaf Mountain Mahogany","flight_no":"Squ-68","price":"1862.96"},
{"airline_name":"Drumheads","flight_no":"NSf-14","price":"115.38"},
{"airline_name":"Fringed Bluestar","flight_no":"0ZW-01","price":"855.47"},
{"airline_name":"Mapleleaf Viburnum","flight_no":"BtV-61","price":"467.50"},
{"airline_name":"Cat's Ear","flight_no":"dx9-81","price":"963.78"},
{"airline_name":"Whitney's Bristleweed","flight_no":"ZOm-57","price":"787.76"},
{"airline_name":"Groundcherry","flight_no":"FVM-42","price":"1788.01"},
{"airline_name":"Navajo Cinquefoil","flight_no":"Eny-16","price":"381.92"},
{"airline_name":"Munz's Bedstraw","flight_no":"VsM-70","price":"1332.66"},
{"airline_name":"Nettleleaf Goosefoot","flight_no":"JHd-62","price":"1575.38"},
{"airline_name":"Canyon Mock Orange","flight_no":"vUU-97","price":"1696.72"},
{"airline_name":"Pyramidflower","flight_no":"Gtg-80","price":"291.42"},
{"airline_name":"Mt. Hamilton Jewelflower","flight_no":"IKH-09","price":"1956.96"},
{"airline_name":"Water Foxtail","flight_no":"gsQ-55","price":"467.78"},
{"airline_name":"Musk Rose","flight_no":"S9n-21","price":"1307.95"},
{"airline_name":"Pyrenopsis Lichen","flight_no":"rvQ-80","price":"167.95"},
{"airline_name":"Fewflower Jacob's-ladder","flight_no":"t2k-61","price":"1411.49"},
{"airline_name":"Smith's Melicgrass","flight_no":"IAd-84","price":"1765.42"},
{"airline_name":"Longbeak Arrowhead","flight_no":"4aD-41","price":"618.65"},
{"airline_name":"Harger's Goldenrod","flight_no":"JjU-99","price":"1243.21"},
{"airline_name":"Jack In The Pulpit","flight_no":"vpr-49","price":"1822.63"},
{"airline_name":"Wild Foxglove","flight_no":"EV2-58","price":"774.80"},
{"airline_name":"Smith's Hygrohypnum Moss","flight_no":"eRQ-23","price":"1899.24"},
{"airline_name":"Eaton's Spikemoss","flight_no":"iVd-54","price":"141.42"},
{"airline_name":"Muir's Fleabane","flight_no":"KnL-08","price":"1329.56"},
{"airline_name":"Santa Monica Lecidea Lichen","flight_no":"nJj-71","price":"334.29"},
{"airline_name":"Giant Granadilla","flight_no":"XlJ-28","price":"437.55"},
{"airline_name":"Rattan's Milkvetch","flight_no":"Zfv-58","price":"1807.51"},
{"airline_name":"Prostrate Ceanothus","flight_no":"6Bl-77","price":"1746.82"},
{"airline_name":"Trecul's Pricklyleaf","flight_no":"wPt-06","price":"713.30"},
{"airline_name":"Boykin's Clusterpea","flight_no":"g1O-90","price":"991.20"},
{"airline_name":"Catclaw Acacia","flight_no":"ZCS-91","price":"138.04"},
{"airline_name":"Rosy Buckwheat","flight_no":"K5Y-12","price":"1468.56"},
{"airline_name":"Wart Lichen","flight_no":"lZe-81","price":"1892.33"},
{"airline_name":"Sticky Catchfly","flight_no":"HgY-94","price":"1016.44"},
{"airline_name":"Hoover's Brodiaea","flight_no":"xxh-78","price":"1378.68"},
{"airline_name":"Lady's Tresses","flight_no":"gIx-01","price":"193.58"},
{"airline_name":"Summer Snowflake","flight_no":"UZu-39","price":"1157.84"},
{"airline_name":"Pore Lichen","flight_no":"TeX-74","price":"480.93"},
{"airline_name":"Dotted Lichen","flight_no":"Rw6-92","price":"1500.17"},
{"airline_name":"Felt Lichen","flight_no":"x4d-06","price":"925.16"},
{"airline_name":"Leadville Milkvetch","flight_no":"p2n-67","price":"1071.72"},
{"airline_name":"Cliff Dwarf-primrose","flight_no":"G2w-64","price":"1692.93"},
{"airline_name":"Saw Phacelia","flight_no":"oDm-63","price":"608.63"},
{"airline_name":"Whitewhorl Lupine","flight_no":"EjS-30","price":"388.90"},
{"airline_name":"Gordon's Bladderpod","flight_no":"d7t-94","price":"1112.63"},
{"airline_name":"Diogenes' Lantern","flight_no":"n28-22","price":"1618.05"},
{"airline_name":"Schlotheimia Moss","flight_no":"pdO-34","price":"1607.90"},
{"airline_name":"Flatcrown Buckwheat","flight_no":"Lwm-03","price":"218.09"},
{"airline_name":"Alkaliweed","flight_no":"GXb-34","price":"1114.18"},
{"airline_name":"Black Flatsedge","flight_no":"PaJ-72","price":"366.59"},
{"airline_name":"Amelasorbus","flight_no":"ZnD-99","price":"508.61"},
{"airline_name":"Obovate Beakgrain","flight_no":"Wj7-49","price":"1269.66"},
{"airline_name":"Cutleaf Anemone","flight_no":"Fa2-21","price":"1753.91"},
{"airline_name":"Berlandier's Wolfberry","flight_no":"SMb-54","price":"410.86"},
{"airline_name":"Date Palm","flight_no":"BJl-54","price":"795.15"},
{"airline_name":"Spreading Hedgeparsley","flight_no":"Nfu-79","price":"934.88"},
{"airline_name":"Pitcher Sage","flight_no":"l1z-59","price":"588.37"},
{"airline_name":"Henbane","flight_no":"gte-57","price":"191.28"},
{"airline_name":"Coast Cockspur Grass","flight_no":"26b-68","price":"1819.21"},
{"airline_name":"Pitchfork","flight_no":"zLk-99","price":"277.62"},
{"airline_name":"Bigelow's Rubberweed","flight_no":"azs-52","price":"1489.57"},
{"airline_name":"Cody's Rockcress","flight_no":"Eg4-35","price":"1400.35"},
{"airline_name":"Spotless Balm","flight_no":"nhu-80","price":"1582.55"},
{"airline_name":"Dunkeld Larch","flight_no":"d4m-81","price":"1615.32"},
{"airline_name":"Rim Lichen","flight_no":"Vap-31","price":"1245.85"},
{"airline_name":"Tufted Airplant","flight_no":"GHY-58","price":"1287.69"},
{"airline_name":"Wig Knapweed","flight_no":"s5k-93","price":"1055.83"},
{"airline_name":"Redmammee","flight_no":"h6v-27","price":"160.16"},
{"airline_name":"Variable-leaf Ticktrefoil","flight_no":"DU7-37","price":"568.31"},
{"airline_name":"Beard Lichen","flight_no":"qz6-21","price":"936.86"},
{"airline_name":"Pineland Valerian","flight_no":"zMm-63","price":"387.37"},
{"airline_name":"Timothy","flight_no":"sUO-66","price":"1347.69"},
{"airline_name":"Rim Lichen","flight_no":"Zji-80","price":"1838.79"},
{"airline_name":"Rosette Lichen","flight_no":"b1p-01","price":"1690.95"},
{"airline_name":"Coastal Plain Beaksedge","flight_no":"NbI-54","price":"1648.22"},
{"airline_name":"Scabland Penstemon","flight_no":"Q5c-99","price":"1709.82"},
{"airline_name":"Spreading Fissurewort","flight_no":"F7H-21","price":"1224.19"},
{"airline_name":"Green Monardella","flight_no":"5Nr-22","price":"1622.91"},
{"airline_name":"Hybrid Willow","flight_no":"bzk-78","price":"1559.07"},
{"airline_name":"Lagos Silkrubbertree","flight_no":"n5o-64","price":"836.85"},
{"airline_name":"Sharpscale Spikerush","flight_no":"DT4-05","price":"348.57"},
{"airline_name":"Granite Draba","flight_no":"Nr5-48","price":"1272.85"},
{"airline_name":"Esslingeriana Lichen","flight_no":"xJL-47","price":"949.79"},
{"airline_name":"Jones' Selenia","flight_no":"ttb-66","price":"433.69"},
{"airline_name":"Cosmos","flight_no":"E35-09","price":"1785.29"},
{"airline_name":"Cronquist's Milkvetch","flight_no":"MCq-87","price":"416.09"},
{"airline_name":"Rockdwelling Sedge","flight_no":"Vhe-08","price":"1279.32"},
{"airline_name":"Caribbean Wingcup","flight_no":"l8v-72","price":"1797.03"},
{"airline_name":"Brushland Shrubverbena","flight_no":"VbB-38","price":"570.71"},
{"airline_name":"Paraleucobryum Moss","flight_no":"DAe-55","price":"1003.75"},
{"airline_name":"Whiteflower Ipomopsis","flight_no":"e8w-17","price":"1519.99"},
{"airline_name":"Hybrid Violet","flight_no":"GK9-70","price":"1406.74"},
{"airline_name":"Canada Cocklebur","flight_no":"WuT-34","price":"1595.23"},
{"airline_name":"Eastern Poison Ivy","flight_no":"PXx-21","price":"831.06"},
{"airline_name":"Proctor's Vriesea","flight_no":"6Gr-56","price":"1899.28"},
{"airline_name":"Iwatsukiella Moss","flight_no":"AIl-59","price":"1451.59"},
{"airline_name":"Pahutan","flight_no":"FOk-53","price":"834.89"},
{"airline_name":"Chihuahua Pricklypear","flight_no":"AB8-10","price":"1904.63"},
{"airline_name":"Kauai Wormwood","flight_no":"oic-33","price":"741.71"},
{"airline_name":"Bartram Oak","flight_no":"h55-14","price":"869.05"}]